…
I decided to create a summary of the contributions

##    Min. 1st Qu.  Median    Mean 3rd Qu.    Max. 
##     1.0    19.0    35.0   150.7   100.0 20000.0

As expected, the mean and median are not close to each other at all, owing to the skew in the data distribution.

I decided to split up the data and look at the number of donations based on each candidate. For that, I had to group the data by each candidate.

## Source: local data frame [25 x 6]
## Groups: cand_nm [25]
## 
##                      cand_nm party      total       mean median
##                       <fctr> <chr>      <dbl>      <dbl>  <dbl>
## 1    Clinton, Hillary Rodham     D 22323772.0  122.62979  25.00
## 2           Trump, Donald J.     R 12913128.3  169.08640  74.37
## 3               Rubio, Marco     R  8015192.7  424.53351 100.00
## 4                  Bush, Jeb     R  7029399.0 1228.91591 500.00
## 5  Cruz, Rafael Edward 'Ted'     R  3608352.1  128.00114  50.00
## 6           Sanders, Bernard     D  3481926.7   42.49517  25.00
## 7        Carson, Benjamin S.     R  2034620.1  128.64315  50.00
## 8            Kasich, John R.     R   795640.7  600.03066 250.00
## 9             Fiorina, Carly     R   451328.1  221.45637 100.00
## 10                Paul, Rand     R   394795.5  201.52909  50.00
## # ... with 15 more rows, and 1 more variables: number_contb <int>
…
I wasnt surprised to see both the democrats at the top of the list for number of contributions as they are known to receive a lot of smaller denomination contributions.

Then I decided to look at the people who had the highest number of contributions. So i had to create another group.

## Source: local data frame [121,420 x 6]
## Groups: contbr_nm [112,232]
## 
##                     contbr_nm                      contbr_occupation total
##                        <fctr>                                 <fctr> <dbl>
## 1            HAGELIN, REBECCA                              MARKETING 38700
## 2      MOSKOWITZ, CHERNA MRS.                                RETIRED 30700
## 3           PARRILLO, RICHARD                       CHAIRMAN AND CEO 29700
## 4             SHRAGER, THOMAS                                ANALYST 27000
## 5  THORNTON, PETER F. MR. SR.                               CHAIRMAN 24300
## 6          PRATT, JOHN T. MR.                                RETIRED 24050
## 7          VELASQUEZ, BRIGITH INFORMATION REQUESTED PER BEST EFFORTS 23625
## 8      STOKER, RICHARD C. MR.                                RETIRED 21300
## 9           CASTILLO, GENESIS INFORMATION REQUESTED PER BEST EFFORTS 20991
## 10      VOELL, RICHARD A. MR.                                RETIRED 20600
## # ... with 121,410 more rows, and 3 more variables: mean <dbl>,
## #   median <dbl>, n <int>
…
